1	15123
1	15123
1	15123
1	15123
1	15121
2	15122
1	14123
1	14123
1	14123
1	14121
2	14122
1	16123
1	16123
1	16123
1	16123
1	16123
1	16121
2	16122
1	14123
1	14123
1	14123
1	14121
2	14122
1	16123
1	16123
1	16123
1	16123
1	16123
1	16121
2	16122
1	15123
1	15123
1	15123
1	15123
1	15121
2	15122
1	14123
1	14123
1	14123
1	14121
2	14122
1	16123
1	16123
1	16123
1	16123
1	16123
1	16121
2	16122
1	15123
1	15123
1	15123
1	15123
1	15121
2	15122
1	14123
1	14123
1	14123
1	14121
2	14122
1	16123
1	16123
1	16123
1	16123
1	16123
1	16121
2	16122
1	15123
1	15123
1	15123
1	15123
1	15121
2	15122
1	14123
1	14123
1	14123
1	14121
2	14122
1	16123
1	16123
1	16123
1	16123
1	16123
1	16121
2	16122
1	15123
1	15123
1	15123
1	15123
1	15121
2	15122
1	16123
1	16123
1	16123
1	16123
1	16123
1	16121
2	16122
1	14123
1	14123
1	14123
1	14121
2	14122
1	15123
1	15123
1	15123
1	15123
1	15121
2	15122
1	17223
1	17223
1	17223
1	17223
1	17223
1	17223
1	17221
2	17222
1	16223
1	16223
1	16223
1	16223
1	16223
1	16221
2	16222
1	12223
1	12221
2	12222
1	14223
1	14223
1	14223
1	14221
2	14222
1	18223
1	18223
1	18223
1	18223
1	18223
1	18223
1	18223
1	18221
2	18222
1	13223
1	13223
1	13221
2	13222
1	14223
1	14223
1	14223
1	14221
2	14222
1	18223
1	18223
1	18223
1	18223
1	18223
1	18223
1	18223
1	18221
2	18222
1	16223
1	16223
1	16223
1	16223
1	16223
1	16221
2	16222
1	12223
1	12221
2	12222
1	13223
1	13223
1	13221
2	13222
1	17223
1	17223
1	17223
1	17223
1	17223
1	17223
1	17221
2	17222
1	13223
1	13223
1	13221
2	13222
1	18223
1	18223
1	18223
1	18223
1	18223
1	18223
1	18223
1	18221
2	18222
1	14223
1	14223
1	14223
1	14221
2	14222
1	17223
1	17223
1	17223
1	17223
1	17223
1	17223
1	17221
2	17222
1	16223
1	16223
1	16223
1	16223
1	16223
1	16221
2	16222
1	12223
1	12221
2	12222
1	15123
1	15123
1	15123
1	15123
1	15121
2	15122
1	14123
1	14123
1	14123
1	14121
2	14122
1	16123
1	16123
1	16123
1	16123
1	16123
1	16121
2	16122
1	14123
1	14123
1	14123
1	14121
2	14122
1	15123
1	15123
1	15123
1	15123
1	15121
2	15122
1	16123
1	16123
1	16123
1	16123
1	16123
1	16121
2	16122
1	15123
1	15123
1	15123
1	15123
1	15121
2	15122
1	14123
1	14123
1	14123
1	14121
2	14122
1	16123
1	16123
1	16123
1	16123
1	16123
1	16121
2	16122
1	15123
1	15123
1	15123
1	15123
1	15121
2	15122
1	14123
1	14123
1	14123
1	14121
2	14122
1	16123
1	16123
1	16123
1	16123
1	16123
1	16121
2	16122
1	14123
1	14123
1	14123
1	14121
2	14122
1	16123
1	16123
1	16123
1	16123
1	16123
1	16121
2	16122
1	15123
1	15123
1	15123
1	15123
1	15121
2	15122
1	14123
1	14123
1	14123
1	14121
2	14122
1	15123
1	15123
1	15123
1	15123
1	15121
2	15122
1	16123
1	16123
1	16123
1	16123
1	16123
1	16121
2	16122
1	13223
1	13223
1	13221
2	13222
1	17223
1	17223
1	17223
1	17223
1	17223
1	17223
1	17221
2	17222
1	14223
1	14223
1	14223
1	14221
2	14222
1	12223
1	12221
2	12222
1	18223
1	18223
1	18223
1	18223
1	18223
1	18223
1	18223
1	18221
2	18222
1	16223
1	16223
1	16223
1	16223
1	16223
1	16221
2	16222
1	18223
1	18223
1	18223
1	18223
1	18223
1	18223
1	18223
1	18221
2	18222
1	17223
1	17223
1	17223
1	17223
1	17223
1	17223
1	17221
2	17222
1	13223
1	13223
1	13221
2	13222
1	16223
1	16223
1	16223
1	16223
1	16223
1	16221
2	16222
1	12223
1	12221
2	12222
1	14223
1	14223
1	14223
1	14221
2	14222
1	16223
1	16223
1	16223
1	16223
1	16223
1	16221
2	16222
1	18223
1	18223
1	18223
1	18223
1	18223
1	18223
1	18223
1	18221
2	18222
1	13223
1	13223
1	13221
2	13222
1	17223
1	17223
1	17223
1	17223
1	17223
1	17223
1	17221
2	17222
1	14223
1	14223
1	14223
1	14221
2	14222
1	12223
1	12221
2	12222
1	14123
1	14123
1	14123
1	14121
2	14122
1	16123
1	16123
1	16123
1	16123
1	16123
1	16121
2	16122
1	15123
1	15123
1	15123
1	15123
1	15121
2	15122
1	14123
1	14123
1	14123
1	14121
2	14122
1	16123
1	16123
1	16123
1	16123
1	16123
1	16121
2	16122
1	15123
1	15123
1	15123
1	15123
1	15121
2	15122
1	14123
1	14123
1	14123
1	14121
2	14122
1	16123
1	16123
1	16123
1	16123
1	16123
1	16121
2	16122
1	15123
1	15123
1	15123
1	15123
1	15121
2	15122
1	14123
1	14123
1	14123
1	14121
2	14122
1	16123
1	16123
1	16123
1	16123
1	16123
1	16121
2	16122
1	15123
1	15123
1	15123
1	15123
1	15121
2	15122
1	16123
1	16123
1	16123
1	16123
1	16123
1	16121
2	16122
1	15123
1	15123
1	15123
1	15123
1	15121
2	15122
1	14123
1	14123
1	14123
1	14121
2	14122
1	16123
1	16123
1	16123
1	16123
1	16123
1	16121
2	16122
1	14123
1	14123
1	14123
1	14121
2	14122
1	15123
1	15123
1	15123
1	15123
1	15121
2	15122
1	17223
1	17223
1	17223
1	17223
1	17223
1	17223
1	17221
2	17222
1	14223
1	14223
1	14223
1	14221
2	14222
1	13223
1	13223
1	13221
2	13222
1	12223
1	12221
2	12222
1	18223
1	18223
1	18223
1	18223
1	18223
1	18223
1	18223
1	18221
2	18222
1	16223
1	16223
1	16223
1	16223
1	16223
1	16221
2	16222
1	18223
1	18223
1	18223
1	18223
1	18223
1	18223
1	18223
1	18221
2	18222
1	16223
1	16223
1	16223
1	16223
1	16223
1	16221
2	16222
1	17223
1	17223
1	17223
1	17223
1	17223
1	17223
1	17221
2	17222
1	13223
1	13223
1	13221
2	13222
1	12223
1	12221
2	12222
1	14223
1	14223
1	14223
1	14221
2	14222
1	16223
1	16223
1	16223
1	16223
1	16223
1	16221
2	16222
1	18223
1	18223
1	18223
1	18223
1	18223
1	18223
1	18223
1	18221
2	18222
1	13223
1	13223
1	13221
2	13222
1	12223
1	12221
2	12222
1	17223
1	17223
1	17223
1	17223
1	17223
1	17223
1	17221
2	17222
1	14223
1	14223
1	14223
1	14221
2	14222
1	16123
1	16123
1	16123
1	16123
1	16123
1	16121
2	16122
1	14123
1	14123
1	14123
1	14121
2	14122
1	15123
1	15123
1	15123
1	15123
1	15121
2	15122
1	14123
1	14123
1	14123
1	14121
2	14122
1	15123
1	15123
1	15123
1	15123
1	15121
2	15122
1	16123
1	16123
1	16123
1	16123
1	16123
1	16121
2	16122
1	14123
1	14123
1	14123
1	14121
2	14122
1	16123
1	16123
1	16123
1	16123
1	16123
1	16121
2	16122
1	15123
1	15123
1	15123
1	15123
1	15121
2	15122
1	16123
1	16123
1	16123
1	16123
1	16123
1	16121
2	16122
1	15123
1	15123
1	15123
1	15123
1	15121
2	15122
1	14123
1	14123
1	14123
1	14121
2	14122
1	16123
1	16123
1	16123
1	16123
1	16123
1	16121
2	16122
1	14123
1	14123
1	14123
1	14121
2	14122
1	15123
1	15123
1	15123
1	15123
1	15121
2	15122
1	16123
1	16123
1	16123
1	16123
1	16123
1	16121
2	16122
1	15123
1	15123
1	15123
1	15123
1	15121
2	15122
1	14123
1	14123
1	14123
1	14121
2	14122
1	17223
1	17223
1	17223
1	17223
1	17223
1	17223
1	17221
2	17222
1	16223
1	16223
1	16223
1	16223
1	16223
1	16221
2	16222
1	13223
1	13223
1	13221
2	13222
1	18223
1	18223
1	18223
1	18223
1	18223
1	18223
1	18223
1	18221
2	18222
1	14223
1	14223
1	14223
1	14221
2	14222
1	12223
1	12221
2	12222
1	17223
1	17223
1	17223
1	17223
1	17223
1	17223
1	17221
2	17222
1	14223
1	14223
1	14223
1	14221
2	14222
1	12223
1	12221
2	12222
1	18223
1	18223
1	18223
1	18223
1	18223
1	18223
1	18223
1	18221
2	18222
1	16223
1	16223
1	16223
1	16223
1	16223
1	16221
2	16222
1	13223
1	13223
1	13221
2	13222
1	16223
1	16223
1	16223
1	16223
1	16223
1	16221
2	16222
1	18223
1	18223
1	18223
1	18223
1	18223
1	18223
1	18223
1	18221
2	18222
1	17223
1	17223
1	17223
1	17223
1	17223
1	17223
1	17221
2	17222
1	13223
1	13223
1	13221
2	13222
1	14223
1	14223
1	14223
1	14221
2	14222
1	12223
1	12221
2	12222
1	16123
1	16123
1	16123
1	16123
1	16123
1	16121
2	16122
1	14123
1	14123
1	14123
1	14121
2	14122
1	15123
1	15123
1	15123
1	15123
1	15121
2	15122
1	16123
1	16123
1	16123
1	16123
1	16123
1	16121
2	16122
1	14123
1	14123
1	14123
1	14121
2	14122
1	15123
1	15123
1	15123
1	15123
1	15121
2	15122
1	16123
1	16123
1	16123
1	16123
1	16123
1	16121
2	16122
1	15123
1	15123
1	15123
1	15123
1	15121
2	15122
1	14123
1	14123
1	14123
1	14121
2	14122
1	16123
1	16123
1	16123
1	16123
1	16123
1	16121
2	16122
1	15123
1	15123
1	15123
1	15123
1	15121
2	15122
1	14123
1	14123
1	14123
1	14121
2	14122
1	15123
1	15123
1	15123
1	15123
1	15121
2	15122
1	16123
1	16123
1	16123
1	16123
1	16123
1	16121
2	16122
1	14123
1	14123
1	14123
1	14121
2	14122
1	16123
1	16123
1	16123
1	16123
1	16123
1	16121
2	16122
1	14123
1	14123
1	14123
1	14121
2	14122
1	15123
1	15123
1	15123
1	15123
1	15121
2	15122
1	17223
1	17223
1	17223
1	17223
1	17223
1	17223
1	17221
2	17222
1	16223
1	16223
1	16223
1	16223
1	16223
1	16221
2	16222
1	18223
1	18223
1	18223
1	18223
1	18223
1	18223
1	18223
1	18221
2	18222
1	13223
1	13223
1	13221
2	13222
1	12223
1	12221
2	12222
1	14223
1	14223
1	14223
1	14221
2	14222
1	16223
1	16223
1	16223
1	16223
1	16223
1	16221
2	16222
1	13223
1	13223
1	13221
2	13222
1	12223
1	12221
2	12222
1	14223
1	14223
1	14223
1	14221
2	14222
1	17223
1	17223
1	17223
1	17223
1	17223
1	17223
1	17221
2	17222
1	18223
1	18223
1	18223
1	18223
1	18223
1	18223
1	18223
1	18221
2	18222
1	17223
1	17223
1	17223
1	17223
1	17223
1	17223
1	17221
2	17222
1	12223
1	12221
2	12222
1	14223
1	14223
1	14223
1	14221
2	14222
1	13223
1	13223
1	13221
2	13222
1	16223
1	16223
1	16223
1	16223
1	16223
1	16221
2	16222
1	18223
1	18223
1	18223
1	18223
1	18223
1	18223
1	18223
1	18221
2	18222
1	15123
1	15123
1	15123
1	15123
1	15121
2	15122
1	16123
1	16123
1	16123
1	16123
1	16123
1	16121
2	16122
1	14123
1	14123
1	14123
1	14121
2	14122
1	16123
1	16123
1	16123
1	16123
1	16123
1	16121
2	16122
1	14123
1	14123
1	14123
1	14121
2	14122
1	15123
1	15123
1	15123
1	15123
1	15121
2	15122
1	14123
1	14123
1	14123
1	14121
2	14122
1	15123
1	15123
1	15123
1	15123
1	15121
2	15122
1	16123
1	16123
1	16123
1	16123
1	16123
1	16121
2	16122
1	15123
1	15123
1	15123
1	15123
1	15121
2	15122
1	14123
1	14123
1	14123
1	14121
2	14122
1	16123
1	16123
1	16123
1	16123
1	16123
1	16121
2	16122
1	14123
1	14123
1	14123
1	14121
2	14122
1	16123
1	16123
1	16123
1	16123
1	16123
1	16121
2	16122
1	15123
1	15123
1	15123
1	15123
1	15121
2	15122
1	16123
1	16123
1	16123
1	16123
1	16123
1	16121
2	16122
1	14123
1	14123
1	14123
1	14121
2	14122
1	15123
1	15123
1	15123
1	15123
1	15121
2	15122
1	12223
1	12221
2	12222
1	17223
1	17223
1	17223
1	17223
1	17223
1	17223
1	17221
2	17222
1	13223
1	13223
1	13221
2	13222
1	14223
1	14223
1	14223
1	14221
2	14222
1	18223
1	18223
1	18223
1	18223
1	18223
1	18223
1	18223
1	18221
2	18222
1	16223
1	16223
1	16223
1	16223
1	16223
1	16221
2	16222
1	14223
1	14223
1	14223
1	14221
2	14222
1	12223
1	12221
2	12222
1	13223
1	13223
1	13221
2	13222
1	18223
1	18223
1	18223
1	18223
1	18223
1	18223
1	18223
1	18221
2	18222
1	16223
1	16223
1	16223
1	16223
1	16223
1	16221
2	16222
1	17223
1	17223
1	17223
1	17223
1	17223
1	17223
1	17221
2	17222
1	14223
1	14223
1	14223
1	14221
2	14222
1	18223
1	18223
1	18223
1	18223
1	18223
1	18223
1	18223
1	18221
2	18222
1	12223
1	12221
2	12222
1	16223
1	16223
1	16223
1	16223
1	16223
1	16221
2	16222
1	13223
1	13223
1	13221
2	13222
1	17223
1	17223
1	17223
1	17223
1	17223
1	17223
1	17221
2	17222
1	14123
1	14123
1	14123
1	14121
2	14122
1	16123
1	16123
1	16123
1	16123
1	16123
1	16121
2	16122
1	15123
1	15123
1	15123
1	15123
1	15121
2	15122
1	14123
1	14123
1	14123
1	14121
2	14122
1	16123
1	16123
1	16123
1	16123
1	16123
1	16121
2	16122
1	15123
1	15123
1	15123
1	15123
1	15121
2	15122
1	14123
1	14123
1	14123
1	14121
2	14122
1	15123
1	15123
1	15123
1	15123
1	15121
2	15122
1	16123
1	16123
1	16123
1	16123
1	16123
1	16121
2	16122
1	15123
1	15123
1	15123
1	15123
1	15121
2	15122
1	14123
1	14123
1	14123
1	14121
2	14122
1	16123
1	16123
1	16123
1	16123
1	16123
1	16121
2	16122
1	15123
1	15123
1	15123
1	15123
1	15121
2	15122
1	14123
1	14123
1	14123
1	14121
2	14122
1	16123
1	16123
1	16123
1	16123
1	16123
1	16121
2	16122
1	15123
1	15123
1	15123
1	15123
1	15121
2	15122
1	16123
1	16123
1	16123
1	16123
1	16123
1	16121
2	16122
1	14123
1	14123
1	14123
1	14121
2	14122
1	16223
1	16223
1	16223
1	16223
1	16223
1	16221
2	16222
1	12223
1	12221
2	12222
1	14223
1	14223
1	14223
1	14221
2	14222
1	18223
1	18223
1	18223
1	18223
1	18223
1	18223
1	18223
1	18221
2	18222
1	17223
1	17223
1	17223
1	17223
1	17223
1	17223
1	17221
2	17222
1	13223
1	13223
1	13221
2	13222
1	16223
1	16223
1	16223
1	16223
1	16223
1	16221
2	16222
1	13223
1	13223
1	13221
2	13222
1	14223
1	14223
1	14223
1	14221
2	14222
1	17223
1	17223
1	17223
1	17223
1	17223
1	17223
1	17221
2	17222
1	18223
1	18223
1	18223
1	18223
1	18223
1	18223
1	18223
1	18221
2	18222
1	12223
1	12221
2	12222
1	18223
1	18223
1	18223
1	18223
1	18223
1	18223
1	18223
1	18221
2	18222
1	16223
1	16223
1	16223
1	16223
1	16223
1	16221
2	16222
1	17223
1	17223
1	17223
1	17223
1	17223
1	17223
1	17221
2	17222
1	12223
1	12221
2	12222
1	13223
1	13223
1	13221
2	13222
1	14223
1	14223
1	14223
1	14221
2	14222
1	10003
1	10003
1	10003
