1	25123
1	25123
1	25123
1	25123
1	25121
2	25122
1	26123
1	26123
1	26123
1	26123
1	26123
1	26121
2	26122
1	24123
1	24123
1	24123
1	24121
2	24122
1	25123
1	25123
1	25123
1	25123
1	25121
2	25122
1	26123
1	26123
1	26123
1	26123
1	26123
1	26121
2	26122
1	24123
1	24123
1	24123
1	24121
2	24122
1	25123
1	25123
1	25123
1	25123
1	25121
2	25122
1	26123
1	26123
1	26123
1	26123
1	26123
1	26121
2	26122
1	24123
1	24123
1	24123
1	24121
2	24122
1	25123
1	25123
1	25123
1	25123
1	25121
2	25122
1	26123
1	26123
1	26123
1	26123
1	26123
1	26121
2	26122
1	24123
1	24123
1	24123
1	24121
2	24122
1	25123
1	25123
1	25123
1	25123
1	25121
2	25122
1	26123
1	26123
1	26123
1	26123
1	26123
1	26121
2	26122
1	24123
1	24123
1	24123
1	24121
2	24122
1	25123
1	25123
1	25123
1	25123
1	25121
2	25122
1	26123
1	26123
1	26123
1	26123
1	26123
1	26121
2	26122
1	24123
1	24123
1	24123
1	24121
2	24122
1	22113
1	22111
2	22112
1	24113
1	24113
1	24113
1	24111
2	24112
1	23113
1	23113
1	23111
2	23112
1	24113
1	24113
1	24113
1	24111
2	24112
1	22113
1	22111
2	22112
1	23113
1	23113
1	23111
2	23112
1	24113
1	24113
1	24113
1	24111
2	24112
1	22113
1	22111
2	22112
1	23113
1	23113
1	23111
2	23112
1	27133
1	27133
1	27133
1	27133
1	27133
1	27133
1	27131
2	27132
1	28133
1	28133
1	28133
1	28133
1	28133
1	28133
1	28133
1	28131
2	28132
1	26133
1	26133
1	26133
1	26133
1	26133
1	26131
2	26132
1	27133
1	27133
1	27133
1	27133
1	27133
1	27133
1	27131
2	27132
1	26133
1	26133
1	26133
1	26133
1	26133
1	26131
2	26132
1	28133
1	28133
1	28133
1	28133
1	28133
1	28133
1	28133
1	28131
2	28132
1	27133
1	27133
1	27133
1	27133
1	27133
1	27133
1	27131
2	27132
1	28133
1	28133
1	28133
1	28133
1	28133
1	28133
1	28133
1	28131
2	28132
1	26133
1	26133
1	26133
1	26133
1	26133
1	26131
2	26132
1	24123
1	24123
1	24123
1	24121
2	24122
1	26123
1	26123
1	26123
1	26123
1	26123
1	26121
2	26122
1	25123
1	25123
1	25123
1	25123
1	25121
2	25122
1	26123
1	26123
1	26123
1	26123
1	26123
1	26121
2	26122
1	24123
1	24123
1	24123
1	24121
2	24122
1	25123
1	25123
1	25123
1	25123
1	25121
2	25122
1	26123
1	26123
1	26123
1	26123
1	26123
1	26121
2	26122
1	24123
1	24123
1	24123
1	24121
2	24122
1	25123
1	25123
1	25123
1	25123
1	25121
2	25122
1	26123
1	26123
1	26123
1	26123
1	26123
1	26121
2	26122
1	25123
1	25123
1	25123
1	25123
1	25121
2	25122
1	24123
1	24123
1	24123
1	24121
2	24122
1	25123
1	25123
1	25123
1	25123
1	25121
2	25122
1	26123
1	26123
1	26123
1	26123
1	26123
1	26121
2	26122
1	24123
1	24123
1	24123
1	24121
2	24122
1	25123
1	25123
1	25123
1	25123
1	25121
2	25122
1	26123
1	26123
1	26123
1	26123
1	26123
1	26121
2	26122
1	24123
1	24123
1	24123
1	24121
2	24122
1	22113
1	22111
2	22112
1	24113
1	24113
1	24113
1	24111
2	24112
1	23113
1	23113
1	23111
2	23112
1	24113
1	24113
1	24113
1	24111
2	24112
1	22113
1	22111
2	22112
1	23113
1	23113
1	23111
2	23112
1	22113
1	22111
2	22112
1	23113
1	23113
1	23111
2	23112
1	24113
1	24113
1	24113
1	24111
2	24112
1	27133
1	27133
1	27133
1	27133
1	27133
1	27133
1	27131
2	27132
1	26133
1	26133
1	26133
1	26133
1	26133
1	26131
2	26132
1	28133
1	28133
1	28133
1	28133
1	28133
1	28133
1	28133
1	28131
2	28132
1	26133
1	26133
1	26133
1	26133
1	26133
1	26131
2	26132
1	28133
1	28133
1	28133
1	28133
1	28133
1	28133
1	28133
1	28131
2	28132
1	27133
1	27133
1	27133
1	27133
1	27133
1	27133
1	27131
2	27132
1	26133
1	26133
1	26133
1	26133
1	26133
1	26131
2	26132
1	28133
1	28133
1	28133
1	28133
1	28133
1	28133
1	28133
1	28131
2	28132
1	27133
1	27133
1	27133
1	27133
1	27133
1	27133
1	27131
2	27132
1	24123
1	24123
1	24123
1	24121
2	24122
1	25123
1	25123
1	25123
1	25123
1	25121
2	25122
1	26123
1	26123
1	26123
1	26123
1	26123
1	26121
2	26122
1	24123
1	24123
1	24123
1	24121
2	24122
1	26123
1	26123
1	26123
1	26123
1	26123
1	26121
2	26122
1	25123
1	25123
1	25123
1	25123
1	25121
2	25122
1	26123
1	26123
1	26123
1	26123
1	26123
1	26121
2	26122
1	25123
1	25123
1	25123
1	25123
1	25121
2	25122
1	24123
1	24123
1	24123
1	24121
2	24122
1	25123
1	25123
1	25123
1	25123
1	25121
2	25122
1	26123
1	26123
1	26123
1	26123
1	26123
1	26121
2	26122
1	24123
1	24123
1	24123
1	24121
2	24122
1	26123
1	26123
1	26123
1	26123
1	26123
1	26121
2	26122
1	24123
1	24123
1	24123
1	24121
2	24122
1	25123
1	25123
1	25123
1	25123
1	25121
2	25122
1	26123
1	26123
1	26123
1	26123
1	26123
1	26121
2	26122
1	24123
1	24123
1	24123
1	24121
2	24122
1	25123
1	25123
1	25123
1	25123
1	25121
2	25122
1	23113
1	23113
1	23111
2	23112
1	24113
1	24113
1	24113
1	24111
2	24112
1	22113
1	22111
2	22112
1	23113
1	23113
1	23111
2	23112
1	22113
1	22111
2	22112
1	24113
1	24113
1	24113
1	24111
2	24112
1	22113
1	22111
2	22112
1	24113
1	24113
1	24113
1	24111
2	24112
1	23113
1	23113
1	23111
2	23112
1	26133
1	26133
1	26133
1	26133
1	26133
1	26131
2	26132
1	28133
1	28133
1	28133
1	28133
1	28133
1	28133
1	28133
1	28131
2	28132
1	27133
1	27133
1	27133
1	27133
1	27133
1	27133
1	27131
2	27132
1	26133
1	26133
1	26133
1	26133
1	26133
1	26131
2	26132
1	27133
1	27133
1	27133
1	27133
1	27133
1	27133
1	27131
2	27132
1	28133
1	28133
1	28133
1	28133
1	28133
1	28133
1	28133
1	28131
2	28132
1	26133
1	26133
1	26133
1	26133
1	26133
1	26131
2	26132
1	27133
1	27133
1	27133
1	27133
1	27133
1	27133
1	27131
2	27132
1	28133
1	28133
1	28133
1	28133
1	28133
1	28133
1	28133
1	28131
2	28132
1	25123
1	25123
1	25123
1	25123
1	25121
2	25122
1	24123
1	24123
1	24123
1	24121
2	24122
1	26123
1	26123
1	26123
1	26123
1	26123
1	26121
2	26122
1	25123
1	25123
1	25123
1	25123
1	25121
2	25122
1	26123
1	26123
1	26123
1	26123
1	26123
1	26121
2	26122
1	24123
1	24123
1	24123
1	24121
2	24122
1	25123
1	25123
1	25123
1	25123
1	25121
2	25122
1	26123
1	26123
1	26123
1	26123
1	26123
1	26121
2	26122
1	24123
1	24123
1	24123
1	24121
2	24122
1	26123
1	26123
1	26123
1	26123
1	26123
1	26121
2	26122
1	24123
1	24123
1	24123
1	24121
2	24122
1	25123
1	25123
1	25123
1	25123
1	25121
2	25122
1	24123
1	24123
1	24123
1	24121
2	24122
1	25123
1	25123
1	25123
1	25123
1	25121
2	25122
1	26123
1	26123
1	26123
1	26123
1	26123
1	26121
2	26122
1	24123
1	24123
1	24123
1	24121
2	24122
1	26123
1	26123
1	26123
1	26123
1	26123
1	26121
2	26122
1	25123
1	25123
1	25123
1	25123
1	25121
2	25122
1	23113
1	23113
1	23111
2	23112
1	24113
1	24113
1	24113
1	24111
2	24112
1	22113
1	22111
2	22112
1	24113
1	24113
1	24113
1	24111
2	24112
1	22113
1	22111
2	22112
1	23113
1	23113
1	23111
2	23112
1	22113
1	22111
2	22112
1	24113
1	24113
1	24113
1	24111
2	24112
1	23113
1	23113
1	23111
2	23112
1	28133
1	28133
1	28133
1	28133
1	28133
1	28133
1	28133
1	28131
2	28132
1	26133
1	26133
1	26133
1	26133
1	26133
1	26131
2	26132
1	27133
1	27133
1	27133
1	27133
1	27133
1	27133
1	27131
2	27132
1	28133
1	28133
1	28133
1	28133
1	28133
1	28133
1	28133
1	28131
2	28132
1	27133
1	27133
1	27133
1	27133
1	27133
1	27133
1	27131
2	27132
1	26133
1	26133
1	26133
1	26133
1	26133
1	26131
2	26132
1	28133
1	28133
1	28133
1	28133
1	28133
1	28133
1	28133
1	28131
2	28132
1	27133
1	27133
1	27133
1	27133
1	27133
1	27133
1	27131
2	27132
1	26133
1	26133
1	26133
1	26133
1	26133
1	26131
2	26132
1	24123
1	24123
1	24123
1	24121
2	24122
1	26123
1	26123
1	26123
1	26123
1	26123
1	26121
2	26122
1	25123
1	25123
1	25123
1	25123
1	25121
2	25122
1	24123
1	24123
1	24123
1	24121
2	24122
1	25123
1	25123
1	25123
1	25123
1	25121
2	25122
1	26123
1	26123
1	26123
1	26123
1	26123
1	26121
2	26122
1	24123
1	24123
1	24123
1	24121
2	24122
1	26123
1	26123
1	26123
1	26123
1	26123
1	26121
2	26122
1	25123
1	25123
1	25123
1	25123
1	25121
2	25122
1	26123
1	26123
1	26123
1	26123
1	26123
1	26121
2	26122
1	25123
1	25123
1	25123
1	25123
1	25121
2	25122
1	24123
1	24123
1	24123
1	24121
2	24122
1	25123
1	25123
1	25123
1	25123
1	25121
2	25122
1	24123
1	24123
1	24123
1	24121
2	24122
1	26123
1	26123
1	26123
1	26123
1	26123
1	26121
2	26122
1	24123
1	24123
1	24123
1	24121
2	24122
1	25123
1	25123
1	25123
1	25123
1	25121
2	25122
1	26123
1	26123
1	26123
1	26123
1	26123
1	26121
2	26122
1	24113
1	24113
1	24113
1	24111
2	24112
1	23113
1	23113
1	23111
2	23112
1	22113
1	22111
2	22112
1	23113
1	23113
1	23111
2	23112
1	24113
1	24113
1	24113
1	24111
2	24112
1	22113
1	22111
2	22112
1	23113
1	23113
1	23111
2	23112
1	24113
1	24113
1	24113
1	24111
2	24112
1	22113
1	22111
2	22112
1	27133
1	27133
1	27133
1	27133
1	27133
1	27133
1	27131
2	27132
1	26133
1	26133
1	26133
1	26133
1	26133
1	26131
2	26132
1	28133
1	28133
1	28133
1	28133
1	28133
1	28133
1	28133
1	28131
2	28132
1	26133
1	26133
1	26133
1	26133
1	26133
1	26131
2	26132
1	27133
1	27133
1	27133
1	27133
1	27133
1	27133
1	27131
2	27132
1	28133
1	28133
1	28133
1	28133
1	28133
1	28133
1	28133
1	28131
2	28132
1	27133
1	27133
1	27133
1	27133
1	27133
1	27133
1	27131
2	27132
1	26133
1	26133
1	26133
1	26133
1	26133
1	26131
2	26132
1	28133
1	28133
1	28133
1	28133
1	28133
1	28133
1	28133
1	28131
2	28132
1	26123
1	26123
1	26123
1	26123
1	26123
1	26121
2	26122
1	25123
1	25123
1	25123
1	25123
1	25121
2	25122
1	24123
1	24123
1	24123
1	24121
2	24122
1	26123
1	26123
1	26123
1	26123
1	26123
1	26121
2	26122
1	25123
1	25123
1	25123
1	25123
1	25121
2	25122
1	24123
1	24123
1	24123
1	24121
2	24122
1	25123
1	25123
1	25123
1	25123
1	25121
2	25122
1	24123
1	24123
1	24123
1	24121
2	24122
1	26123
1	26123
1	26123
1	26123
1	26123
1	26121
2	26122
1	24123
1	24123
1	24123
1	24121
2	24122
1	26123
1	26123
1	26123
1	26123
1	26123
1	26121
2	26122
1	25123
1	25123
1	25123
1	25123
1	25121
2	25122
1	26123
1	26123
1	26123
1	26123
1	26123
1	26121
2	26122
1	25123
1	25123
1	25123
1	25123
1	25121
2	25122
1	24123
1	24123
1	24123
1	24121
2	24122
1	25123
1	25123
1	25123
1	25123
1	25121
2	25122
1	26123
1	26123
1	26123
1	26123
1	26123
1	26121
2	26122
1	24123
1	24123
1	24123
1	24121
2	24122
1	22113
1	22111
2	22112
1	23113
1	23113
1	23111
2	23112
1	24113
1	24113
1	24113
1	24111
2	24112
1	23113
1	23113
1	23111
2	23112
1	22113
1	22111
2	22112
1	24113
1	24113
1	24113
1	24111
2	24112
1	23113
1	23113
1	23111
2	23112
1	24113
1	24113
1	24113
1	24111
2	24112
1	22113
1	22111
2	22112
1	28133
1	28133
1	28133
1	28133
1	28133
1	28133
1	28133
1	28131
2	28132
1	27133
1	27133
1	27133
1	27133
1	27133
1	27133
1	27131
2	27132
1	26133
1	26133
1	26133
1	26133
1	26133
1	26131
2	26132
1	28133
1	28133
1	28133
1	28133
1	28133
1	28133
1	28133
1	28131
2	28132
1	27133
1	27133
1	27133
1	27133
1	27133
1	27133
1	27131
2	27132
1	26133
1	26133
1	26133
1	26133
1	26133
1	26131
2	26132
1	28133
1	28133
1	28133
1	28133
1	28133
1	28133
1	28133
1	28131
2	28132
1	26133
1	26133
1	26133
1	26133
1	26133
1	26131
2	26132
1	27133
1	27133
1	27133
1	27133
1	27133
1	27133
1	27131
2	27132
1	25123
1	25123
1	25123
1	25123
1	25121
2	25122
1	24123
1	24123
1	24123
1	24121
2	24122
1	26123
1	26123
1	26123
1	26123
1	26123
1	26121
2	26122
1	24123
1	24123
1	24123
1	24121
2	24122
1	25123
1	25123
1	25123
1	25123
1	25121
2	25122
1	26123
1	26123
1	26123
1	26123
1	26123
1	26121
2	26122
1	25123
1	25123
1	25123
1	25123
1	25121
2	25122
1	26123
1	26123
1	26123
1	26123
1	26123
1	26121
2	26122
1	24123
1	24123
1	24123
1	24121
2	24122
1	25123
1	25123
1	25123
1	25123
1	25121
2	25122
1	26123
1	26123
1	26123
1	26123
1	26123
1	26121
2	26122
1	24123
1	24123
1	24123
1	24121
2	24122
1	26123
1	26123
1	26123
1	26123
1	26123
1	26121
2	26122
1	24123
1	24123
1	24123
1	24121
2	24122
1	25123
1	25123
1	25123
1	25123
1	25121
2	25122
1	26123
1	26123
1	26123
1	26123
1	26123
1	26121
2	26122
1	25123
1	25123
1	25123
1	25123
1	25121
2	25122
1	24123
1	24123
1	24123
1	24121
2	24122
1	22113
1	22111
2	22112
1	24113
1	24113
1	24113
1	24111
2	24112
1	23113
1	23113
1	23111
2	23112
1	22113
1	22111
2	22112
1	24113
1	24113
1	24113
1	24111
2	24112
1	23113
1	23113
1	23111
2	23112
1	22113
1	22111
2	22112
1	24113
1	24113
1	24113
1	24111
2	24112
1	23113
1	23113
1	23111
2	23112
1	26133
1	26133
1	26133
1	26133
1	26133
1	26131
2	26132
1	28133
1	28133
1	28133
1	28133
1	28133
1	28133
1	28133
1	28131
2	28132
1	27133
1	27133
1	27133
1	27133
1	27133
1	27133
1	27131
2	27132
1	26133
1	26133
1	26133
1	26133
1	26133
1	26131
2	26132
1	28133
1	28133
1	28133
1	28133
1	28133
1	28133
1	28133
1	28131
2	28132
1	27133
1	27133
1	27133
1	27133
1	27133
1	27133
1	27131
2	27132
1	26133
1	26133
1	26133
1	26133
1	26133
1	26131
2	26132
1	28133
1	28133
1	28133
1	28133
1	28133
1	28133
1	28133
1	28131
2	28132
1	27133
1	27133
1	27133
1	27133
1	27133
1	27133
1	27131
2	27132
1	20003
1	20003
1	20003
