eSu00 1  11 2 22 3 12 4 21
eSu01 1  11 2 22 3 12 4 21
eSu02 1  12 2 21 3 11 4 22
eSu03 1  21 2 12 3 22 4 11
eSu04 1  22 2 11 3 21 4 12
eSu05 1  11 2 21 3 12 4 22
eSu06 1  12 2 22 3 11 4 21
eSu07 1  21 2 11 3 22 4 12
eSu08 1  22 2 12 3 21 4 11
eSu09 1  11 2 22 3 21 4 12
eSu10 1  12 2 21 3 22 4 11
eSu11 1  21 2 12 3 11 4 22
eSu12 1  22 2 11 3 12 4 21
eSu13 1  11 2 21 3 22 4 12
eSu14 1  11 2 12 3 22 4 21
eSu15 1  21 2 11 3 12 4 22
eSu16 1  22 2 12 3 11 4 21
eSu17 1  11 2 12 3 21 4 22
eSu18 1  12 2 11 3 22 4 21
eSu19 1  21 2 22 3 11 4 12
eSu20 1  22 2 21 3 12 4 11
eSu21 1  11 2 12 3 22 4 21
eSu22 1  12 2 11 3 21 4 22
eSu23 1  21 2 22 3 12 4 11
eSu24 1  22 2 21 3 11 4 12
eSu25 1  11 2 22 3 12 4 21
eSu26 1  12 2 21 3 11 4 22
eSu27 1  21 2 12 3 22 4 11
eSu28 1  22 2 11 3 21 4 12
eSu29 1  11 2 22 3 21 4 12
eSu30 1  12 2 21 3 22 4 11
eSu31 1  21 2 12 3 11 4 22
eSu32 1  22 2 11 3 12 4 21
eSu33 1  11 2 12 3 21 4 22
eSu34 1  12 2 11 3 22 4 21
eSu35 1  21 2 22 3 11 4 12
